…
library(rmarkdown)
apply(reports, MARGIN = 1, 
            FUN = function(x){
                render(input = "Project2.Rmd", output_file = x[[1]], params = x[[2]])
                })
```

``` r
## Read in Raw Data Using Relative Path
rawData <- read_csv("OnlineNewsPopularity.csv") 
rawData
```

    ## # A tibble: 39,644 x 61
    ##    url             timedelta n_tokens_title n_tokens_content n_unique_tokens
    ##    <chr>               <dbl>          <dbl>            <dbl>           <dbl>
    ##  1 http://mashabl~       731             12              219           0.664
    ##  2 http://mashabl~       731              9              255           0.605
    ##  3 http://mashabl~       731              9              211           0.575
    ##  4 http://mashabl~       731              9              531           0.504
    ##  5 http://mashabl~       731             13             1072           0.416
    ##  6 http://mashabl~       731             10              370           0.560
    ##  7 http://mashabl~       731              8              960           0.418
    ##  8 http://mashabl~       731             12              989           0.434
    ##  9 http://mashabl~       731             11               97           0.670
    ## 10 http://mashabl~       731             10              231           0.636
    ## # ... with 39,634 more rows, and 56 more variables: n_non_stop_words <dbl>,
    ## #   n_non_stop_unique_tokens <dbl>, num_hrefs <dbl>, num_self_hrefs <dbl>,
    ## #   num_imgs <dbl>, num_videos <dbl>, average_token_length <dbl>,
    ## #   num_keywords <dbl>, data_channel_is_lifestyle <dbl>,
    ## #   data_channel_is_entertainment <dbl>, data_channel_is_bus <dbl>,
    ## #   data_channel_is_socmed <dbl>, data_channel_is_tech <dbl>,
    ## #   data_channel_is_world <dbl>, kw_min_min <dbl>, kw_max_min <dbl>, ...
…
       if_else(data_channel_is_entertainment == 1, "Entertainment Analysis",
               if_else(data_channel_is_lifestyle == 1, "Lifestyle Analysis",
                      if_else(data_channel_is_socmed == 1, "Social Media Analysis",
                              if_else(data_channel_is_tech == 1, "Tech Analysis", "World Analysis"))))))
## Subset Data for Respective Data Channel
subsetData <- rawDataNew %>% filter(data_channel == params$data_channel)
## Create Training and Test Data Sets
set.seed(500)
trainIndex <- createDataPartition(subsetData$shares, p = 0.7, list = FALSE)
trainData <- subsetData[trainIndex,]
testData <- subsetData[-trainIndex,]
trainData
```

    ## # A tibble: 1,472 x 62
    ##    url             timedelta n_tokens_title n_tokens_content n_unique_tokens
    ##    <chr>               <dbl>          <dbl>            <dbl>           <dbl>
    ##  1 http://mashabl~       731             11              103           0.689
    ##  2 http://mashabl~       731             10              243           0.619
    ##  3 http://mashabl~       731              8              204           0.586
    ##  4 http://mashabl~       730             12              499           0.513
    ##  5 http://mashabl~       729             11              223           0.662
    ##  6 http://mashabl~       729             11             1099           0.412
    ##  7 http://mashabl~       729             14              318           0.633
    ##  8 http://mashabl~       729              7              144           0.723
    ##  9 http://mashabl~       729             11             1058           0.410
    ## 10 http://mashabl~       729              8              211           0.608
    ## # ... with 1,462 more rows, and 57 more variables: n_non_stop_words <dbl>,
    ## #   n_non_stop_unique_tokens <dbl>, num_hrefs <dbl>, num_self_hrefs <dbl>,
    ## #   num_imgs <dbl>, num_videos <dbl>, average_token_length <dbl>,
    ## #   num_keywords <dbl>, data_channel_is_lifestyle <dbl>,
    ## #   data_channel_is_entertainment <dbl>, data_channel_is_bus <dbl>,
    ## #   data_channel_is_socmed <dbl>, data_channel_is_tech <dbl>,
    ## #   data_channel_is_world <dbl>, kw_min_min <dbl>, kw_max_min <dbl>, ...

``` r
testData
```

    ## # A tibble: 627 x 62
    ##    url             timedelta n_tokens_title n_tokens_content n_unique_tokens
    ##    <chr>               <dbl>          <dbl>            <dbl>           <dbl>
    ##  1 http://mashabl~       731              8              960           0.418
    ##  2 http://mashabl~       731             10              187           0.667
    ##  3 http://mashabl~       731             11              315           0.551
    ##  4 http://mashabl~       731             10             1190           0.409
    ##  5 http://mashabl~       731              6              374           0.641
    ##  6 http://mashabl~       729              7             1007           0.438
    ##  7 http://mashabl~       729              9              455           0.496
    ##  8 http://mashabl~       729             10              258           0.589
    ##  9 http://mashabl~       729              8             1020           0.413
    ## 10 http://mashabl~       729              8              123           0.717
    ## # ... with 617 more rows, and 57 more variables: n_non_stop_words <dbl>,
    ## #   n_non_stop_unique_tokens <dbl>, num_hrefs <dbl>, num_self_hrefs <dbl>,
    ## #   num_imgs <dbl>, num_videos <dbl>, average_token_length <dbl>,
    ## #   num_keywords <dbl>, data_channel_is_lifestyle <dbl>,
    ## #   data_channel_is_entertainment <dbl>, data_channel_is_bus <dbl>,
    ## #   data_channel_is_socmed <dbl>, data_channel_is_tech <dbl>,
    ## #   data_channel_is_world <dbl>, kw_min_min <dbl>, kw_max_min <dbl>, ...
…
### Create New Variables for EDA

``` r
#Create New variable using weekday_is_() variables
trainDataNew <- trainData %>% mutate(day_of_the_week =   if_else(weekday_is_monday == 1, "Monday",
       if_else(weekday_is_tuesday == 1, "Tuesday",
               if_else(weekday_is_wednesday == 1, "Wednesday",
                      if_else(weekday_is_thursday == 1, "Thursday",
                              if_else(weekday_is_friday == 1, "Friday",
                                      if_else(weekday_is_saturday == 1, "Saturday", "Sunday"
                                              ))))))) 
trainDataNew
```

    ## # A tibble: 1,472 x 63
    ##    url             timedelta n_tokens_title n_tokens_content n_unique_tokens
    ##    <chr>               <dbl>          <dbl>            <dbl>           <dbl>
    ##  1 http://mashabl~       731             11              103           0.689
    ##  2 http://mashabl~       731             10              243           0.619
    ##  3 http://mashabl~       731              8              204           0.586
    ##  4 http://mashabl~       730             12              499           0.513
    ##  5 http://mashabl~       729             11              223           0.662
    ##  6 http://mashabl~       729             11             1099           0.412
    ##  7 http://mashabl~       729             14              318           0.633
    ##  8 http://mashabl~       729              7              144           0.723
    ##  9 http://mashabl~       729             11             1058           0.410
    ## 10 http://mashabl~       729              8              211           0.608
    ## # ... with 1,462 more rows, and 58 more variables: n_non_stop_words <dbl>,
    ## #   n_non_stop_unique_tokens <dbl>, num_hrefs <dbl>, num_self_hrefs <dbl>,
    ## #   num_imgs <dbl>, num_videos <dbl>, average_token_length <dbl>,
    ## #   num_keywords <dbl>, data_channel_is_lifestyle <dbl>,
    ## #   data_channel_is_entertainment <dbl>, data_channel_is_bus <dbl>,
    ## #   data_channel_is_socmed <dbl>, data_channel_is_tech <dbl>,
    ## #   data_channel_is_world <dbl>, kw_min_min <dbl>, kw_max_min <dbl>, ...
…
